{
	"info": {
		"_postman_id": "9c985042-4a8b-4bfd-b75b-695b4d18e437",
		"name": "Transdirect_Bookings",
		"schema": "https://schema.getpostman.com/json/collection/v2.1.0/collection.json"
	},
	"item": [
		{
			"name": "SearchForLocations",
			"item": [
				{
					"name": "Valid post code",
					"event": [
						{
							"listen": "test",
							"script": {
								"id": "d61ae9a7-9ac9-436e-8a53-5159e5c8a69e",
								"exec": [
									"pm.test(\"Status code is 200\", function () {",
									"    pm.response.to.have.status(200);",
									"});",
									"",
									"//----------------------",
									"",
									"//---------------------",
									"console.log(\"Token is :\"+request.headers['postman-token']);",
									"",
									"",
									"//---------------------",
									"",
									"console.log(request);",
									"console.log(\"Type of request is: \"+typeof request);",
									"console.log(responseHeaders);",
									"console.log(\"Type of responseHeaders is: \"+typeof responseHeaders);",
									"console.log(responseBody);",
									"console.log(\"Type of responseBody is :\"+typeof responseBody);",
									"console.log(responseTime);",
									"console.log(\"Type of responseTime is :\"+typeof responseTime);",
									"console.log(responseCode);",
									"console.log(\"Type of responseCode is :\"+typeof responseCode);",
									"",
									"console.log(\"ResponseHeader Date :\"+responseHeaders['Date']);",
									"",
									"console.log(typeof responseBody);"
								],
								"type": "text/javascript"
							}
						}
					],
					"protocolProfileBehavior": {
						"disableBodyPruning": true
					},
					"request": {
						"method": "GET",
						"header": [],
						"body": {
							"mode": "raw",
							"raw": ""
						},
						"url": {
							"raw": "https://www.transdirect.com.au/api/locations/postcode/{{valid_code}}",
							"protocol": "https",
							"host": [
								"www",
								"transdirect",
								"com",
								"au"
							],
							"path": [
								"api",
								"locations",
								"postcode",
								"{{valid_code}}"
							]
						}
					},
					"response": []
				},
				{
					"name": "Valid post code start with space",
					"event": [
						{
							"listen": "test",
							"script": {
								"id": "22101be7-f398-4aad-a34c-e910c2a5c558",
								"exec": [
									"pm.test(\"Status code is 200\", function () {",
									"    pm.response.to.have.status(200);",
									"});",
									"pm.test(\"Body matches string\", function () {",
									"    pm.expect(pm.response.text()).to.include(\"locations\");",
									"});"
								],
								"type": "text/javascript"
							}
						}
					],
					"request": {
						"method": "GET",
						"header": [],
						"body": {
							"mode": "raw",
							"raw": ""
						},
						"url": {
							"raw": "https://www.transdirect.com.au/api/locations/postcode/ 2760",
							"protocol": "https",
							"host": [
								"www",
								"transdirect",
								"com",
								"au"
							],
							"path": [
								"api",
								"locations",
								"postcode",
								" 2760"
							]
						}
					},
					"response": []
				},
				{
					"name": "Valid post code ends with space",
					"event": [
						{
							"listen": "test",
							"script": {
								"id": "a64b703f-d9ce-4ba6-9d2f-3d18eaf9c280",
								"exec": [
									"pm.test(\"Status code is 200\", function () {",
									"    pm.response.to.have.status(200);",
									"});"
								],
								"type": "text/javascript"
							}
						}
					],
					"request": {
						"method": "GET",
						"header": [],
						"body": {
							"mode": "raw",
							"raw": ""
						},
						"url": {
							"raw": "https://www.transdirect.com.au/api/locations/postcode/2760",
							"protocol": "https",
							"host": [
								"www",
								"transdirect",
								"com",
								"au"
							],
							"path": [
								"api",
								"locations",
								"postcode",
								"2760"
							]
						}
					},
					"response": []
				},
				{
					"name": "Valid post code starts with special character",
					"event": [
						{
							"listen": "test",
							"script": {
								"id": "8dedbe3d-d23d-4732-9959-c9d47fbbea0a",
								"exec": [
									"pm.test(\"Status code is 404\", function () {",
									"    pm.response.to.have.status(404);",
									"});",
									"pm.test(\"Body matches string\", function () {",
									"    pm.expect(pm.response.text()).to.include(\"postcode` not found.\");",
									"});",
									"pm.test(\"Body matches string\", function () {",
									"    pm.expect(pm.response.text()).to.include(\"'event', 'exception',\");",
									"});"
								],
								"type": "text/javascript"
							}
						}
					],
					"request": {
						"method": "GET",
						"header": [],
						"body": {
							"mode": "raw",
							"raw": ""
						},
						"url": {
							"raw": "https://www.transdirect.com.au/api/locations/postcode/{{special_character}}2760",
							"protocol": "https",
							"host": [
								"www",
								"transdirect",
								"com",
								"au"
							],
							"path": [
								"api",
								"locations",
								"postcode",
								"{{special_character}}2760"
							]
						}
					},
					"response": [
						{
							"name": "Valid post code starts with special character",
							"originalRequest": {
								"method": "GET",
								"header": [],
								"body": {
									"mode": "raw",
									"raw": ""
								},
								"url": {
									"raw": "https://www.transdirect.com.au/api/locations/postcode/#2760",
									"protocol": "https",
									"host": [
										"www",
										"transdirect",
										"com",
										"au"
									],
									"path": [
										"api",
										"locations",
										"postcode",
										""
									],
									"hash": "2760"
								}
							},
							"status": "Not Found",
							"code": 404,
							"_postman_previewlanguage": "html",
							"header": [
								{
									"key": "Date",
									"value": "Tue, 05 Mar 2019 12:28:19 GMT"
								},
								{
									"key": "Content-Type",
									"value": "text/html; charset=UTF-8"
								},
								{
									"key": "Content-Length",
									"value": "4250"
								},
								{
									"key": "Connection",
									"value": "keep-alive"
								},
								{
									"key": "Content-Encoding",
									"value": "gzip"
								},
								{
									"key": "Vary",
									"value": "Accept-Encoding,User-Agent"
								},
								{
									"key": "Expect-CT",
									"value": "max-age=604800, report-uri=\"https://report-uri.cloudflare.com/cdn-cgi/beacon/expect-ct\""
								},
								{
									"key": "Server",
									"value": "cloudflare"
								},
								{
									"key": "CF-RAY",
									"value": "4b2c16c5785ac338-SIN"
								}
							],
							"cookie": [],
							"body": "    \n<script async src=\"https://www.googletagmanager.com/gtag/js?id=UA-5698511-1\"></script>\n<script>\n      window.dataLayer = window.dataLayer || [];\n      function gtag(){dataLayer.push(arguments);}\n      gtag('js', new Date());\n      gtag('config', 'UA-5698511-1', { 'send_page_view': false });\n\n      gtag('event', 'exception', {\n        'description': 'Action `postcode` not found.',\n        'fatal': true\n      });\n    </script>\n<!doctype html><html><head><script>document.domain = \"transdirect.com.au\";</script><script type=\"text/javascript\" src=\"//use.typekit.net/gev8jim.js\"></script><script type=\"text/javascript\">try{Typekit.load();}catch(e){}</script><meta charset=\"UTF-8\" /><script type=\"text/javascript\">window.NREUM||(NREUM={}),__nr_require=function(e,n,t){function r(t){if(!n[t]){var o=n[t]={exports:{}};e[t][0].call(o.exports,function(n){var o=e[t][1][n];return r(o||n)},o,o.exports)}return n[t].exports}if(\"function\"==typeof __nr_require)return __nr_require;for(var o=0;o<t.length;o++)r(t[o]);return r}({1:[function(e,n,t){function r(){}function o(e,n,t){return function(){return i(e,[c.now()].concat(u(arguments)),n?null:this,t),n?void 0:this}}var i=e(\"handle\"),a=e(3),u=e(4),f=e(\"ee\").get(\"tracer\"),c=e(\"loader\"),s=NREUM;\"undefined\"==typeof window.newrelic&&(newrelic=s);var p=[\"setPageViewName\",\"setCustomAttribute\",\"setErrorHandler\",\"finished\",\"addToTrace\",\"inlineHit\",\"addRelease\"],d=\"api-\",l=d+\"ixn-\";a(p,function(e,n){s[n]=o(d+n,!0,\"api\")}),s.addPageAction=o(d+\"addPageAction\",!0),s.setCurrentRouteName=o(d+\"routeName\",!0),n.exports=newrelic,s.interaction=function(){return(new r).get()};var m=r.prototype={createTracer:function(e,n){var t={},r=this,o=\"function\"==typeof n;return i(l+\"tracer\",[c.now(),e,t],r),function(){if(f.emit((o?\"\":\"no-\")+\"fn-start\",[c.now(),r,o],t),o)try{return n.apply(this,arguments)}catch(e){throw f.emit(\"fn-err\",[arguments,this,e],t),e}finally{f.emit(\"fn-end\",[c.now()],t)}}}};a(\"actionText,setName,setAttribute,save,ignore,onEnd,getContext,end,get\".split(\",\"),function(e,n){m[n]=o(l+n)}),newrelic.noticeError=function(e,n){\"string\"==typeof e&&(e=new Error(e)),i(\"err\",[e,c.now(),!1,n])}},{}],2:[function(e,n,t){function r(e,n){if(!o)return!1;if(e!==o)return!1;if(!n)return!0;if(!i)return!1;for(var t=i.split(\".\"),r=n.split(\".\"),a=0;a<r.length;a++)if(r[a]!==t[a])return!1;return!0}var o=null,i=null,a=/Version\\/(\\S+)\\s+Safari/;if(navigator.userAgent){var u=navigator.userAgent,f=u.match(a);f&&u.indexOf(\"Chrome\")===-1&&u.indexOf(\"Chromium\")===-1&&(o=\"Safari\",i=f[1])}n.exports={agent:o,version:i,match:r}},{}],3:[function(e,n,t){function r(e,n){var t=[],r=\"\",i=0;for(r in e)o.call(e,r)&&(t[i]=n(r,e[r]),i+=1);return t}var o=Object.prototype.hasOwnProperty;n.exports=r},{}],4:[function(e,n,t){function r(e,n,t){n||(n=0),\"undefined\"==typeof t&&(t=e?e.length:0);for(var r=-1,o=t-n||0,i=Array(o<0?0:o);++r<o;)i[r]=e[n+r];return i}n.exports=r},{}],5:[function(e,n,t){n.exports={exists:\"undefined\"!=typeof window.performance&&window.performance.timing&&\"undefined\"!=typeof window.performance.timing.navigationStart}},{}],ee:[function(e,n,t){function r(){}function o(e){function n(e){return e&&e instanceof r?e:e?f(e,u,i):i()}function t(t,r,o,i){if(!d.aborted||i){e&&e(t,r,o);for(var a=n(o),u=v(t),f=u.length,c=0;c<f;c++)u[c].apply(a,r);var p=s[y[t]];return p&&p.push([b,t,r,a]),a}}function l(e,n){h[e]=v(e).concat(n)}function m(e,n){var t=h[e];if(t)for(var r=0;r<t.length;r++)t[r]===n&&t.splice(r,1)}function v(e){return h[e]||[]}function g(e){return p[e]=p[e]||o(t)}function w(e,n){c(e,function(e,t){n=n||\"feature\",y[t]=n,n in s||(s[n]=[])})}var h={},y={},b={on:l,addEventListener:l,removeEventListener:m,emit:t,get:g,listeners:v,context:n,buffer:w,abort:a,aborted:!1};return b}function i(){return new r}function a(){(s.api||s.feature)&&(d.aborted=!0,s=d.backlog={})}var u=\"nr@context\",f=e(\"gos\"),c=e(3),s={},p={},d=n.exports=o();d.backlog=s},{}],gos:[function(e,n,t){function r(e,n,t){if(o.call(e,n))return e[n];var r=t();if(Object.defineProperty&&Object.keys)try{return Object.defineProperty(e,n,{value:r,writable:!0,enumerable:!1}),r}catch(i){}return e[n]=r,r}var o=Object.prototype.hasOwnProperty;n.exports=r},{}],handle:[function(e,n,t){function r(e,n,t,r){o.buffer([e],r),o.emit(e,n,t)}var o=e(\"ee\").get(\"handle\");n.exports=r,r.ee=o},{}],id:[function(e,n,t){function r(e){var n=typeof e;return!e||\"object\"!==n&&\"function\"!==n?-1:e===window?0:a(e,i,function(){return o++})}var o=1,i=\"nr@id\",a=e(\"gos\");n.exports=r},{}],loader:[function(e,n,t){function r(){if(!E++){var e=x.info=NREUM.info,n=l.getElementsByTagName(\"script\")[0];if(setTimeout(s.abort,3e4),!(e&&e.licenseKey&&e.applicationID&&n))return s.abort();c(y,function(n,t){e[n]||(e[n]=t)}),f(\"mark\",[\"onload\",a()+x.offset],null,\"api\");var t=l.createElement(\"script\");t.src=\"https://\"+e.agent,n.parentNode.insertBefore(t,n)}}function o(){\"complete\"===l.readyState&&i()}function i(){f(\"mark\",[\"domContent\",a()+x.offset],null,\"api\")}function a(){return O.exists&&performance.now?Math.round(performance.now()):(u=Math.max((new Date).getTime(),u))-x.offset}var u=(new Date).getTime(),f=e(\"handle\"),c=e(3),s=e(\"ee\"),p=e(2),d=window,l=d.document,m=\"addEventListener\",v=\"attachEvent\",g=d.XMLHttpRequest,w=g&&g.prototype;NREUM.o={ST:setTimeout,SI:d.setImmediate,CT:clearTimeout,XHR:g,REQ:d.Request,EV:d.Event,PR:d.Promise,MO:d.MutationObserver};var h=\"\"+location,y={beacon:\"bam.nr-data.net\",errorBeacon:\"bam.nr-data.net\",agent:\"js-agent.newrelic.com/nr-1118.min.js\"},b=g&&w&&w[m]&&!/CriOS/.test(navigator.userAgent),x=n.exports={offset:u,now:a,origin:h,features:{},xhrWrappable:b,userAgent:p};e(1),l[m]?(l[m](\"DOMContentLoaded\",i,!1),d[m](\"load\",r,!1)):(l[v](\"onreadystatechange\",o),d[v](\"onload\",r)),f(\"mark\",[\"firstbyte\",u],null,\"api\");var E=0,O=e(5)},{}]},{},[\"loader\"]);</script><title>Couriers, Freight & Shipping Services in Australia | </title><meta name=\"viewport\" content=\"width=device-width, initial-scale=1.0\"><script type=\"text/javascript\" src=\"/js/quotes/scripts.js\"></script><link rel=\"stylesheet\" type=\"text/css\" href=\"/css/styles.frontend.min.css\" />\n<!--[if lte IE 8]>\n<link rel=\"stylesheet\" type=\"text/css\" href=\"/css/ie8.css\" />\n<![endif]-->\n<!--[if IE 9]>\n<link rel=\"stylesheet\" type=\"text/css\" href=\"/css/ie9.css\" />\n<![endif]-->\n<!--[if lt IE 9]>\n<script src=\"//html5shiv.googlecode.com/svn/trunk/html5.js\"></script>\n<script>window.html5 || document.write('\n    <script src=\"/api/js/libs/html5.js\"><\\/script>')\n    </script>\n    <![endif]-->\n    <link href=\"/favicon.ico\" title=\"Icon\" type=\"image/x-icon\" rel=\"icon\" />\n    <link href=\"/favicon.ico\" title=\"Icon\" type=\"image/x-icon\" rel=\"shortcut icon\" />\n</head>\n<body class=\"page\">\n    <!-- Google Tag Manager -->\n    <noscript>\n        <iframe src=\"//www.googletagmanager.com/ns.html?id=GTM-WJD4P2\" height=\"0\" width=\"0\" style=\"display:none;visibility:hidden\"></iframe>\n    </noscript>\n    <script>(function(w,d,s,l,i){w[l]=w[l]||[];w[l].push({'gtm.start':\n        new Date().getTime(),event:'gtm.js'});var f=d.getElementsByTagName(s)[0],\n        j=d.createElement(s),dl=l!='dataLayer'?'&l='+l:'';j.async=true;j.src=\n        '//www.googletagmanager.com/gtm.js?id='+i+dl;f.parentNode.insertBefore(j,f);\n    })(window,document,'script','dataLayer','GTM-WJD4P2');\n</script>\n    <!-- End Google Tag Manager -->\n    <!-- Google Analytics -->\n    <script async src=\"https://www.googletagmanager.com/gtag/js?id=UA-5698511-1\"></script>\n    <script>\n    window.dataLayer = window.dataLayer || [];\n    function gtag(){dataLayer.push(arguments);}\n    gtag('js', new Date());\n\n    gtag('config', 'UA-5698511-1');\n    gtag('event', 'Error', {'event_category' : 'Quote', 'event_label': '1'});\n</script>\n    <!-- End Google Analytics -->\n    <div class=\"navbar-wrapper\">\n        <div class=\"navbar navbar-default\" role=\"navigation\">\n            <div class=\"container\">\n                <div class=\"row\">\n                    <div class=\"navbar-header col-lg-3\">\n                        <button type=\"button\" class=\"navbar-toggle\" data-toggle=\"collapse\" data-target=\".navbar-collapse\">\n                            <span class=\"icon-bar\"></span>\n                            <span class=\"icon-bar\"></span>\n                            <span class=\"icon-bar\"></span>\n                        </button>\n                        <a href=\"/\" onclick=\"_gaq.push(['_trackEvent', 'Quotes', 'Home'])\">\n                            <img class=\"navbar-brand\" src=\"/images/logo-transdirect.png\" alt=\"transdirect_logo\">\n                    \n                        </a>\n                    </div>\n                    <div class=\"navbar-collapse collapse col-md-12 col-lg-9 navbar-right\">\n                        <div class=\"row\">\n                            <div class=\"clearfix visible-md\"></div>\n                            <div class=\"nav navbar-nav navbar-right\">\n                                <a href=\"/\"\n                               onclick=\"_gaq.push(['_trackEvent', 'Quotes', 'Home'])\"\n                               class=\"btn btn-default navbar-btn\">Home</a>\n                                <a href=\"/api/bookings\"\n                               onclick=\"_gaq.push(['_trackEvent', 'Quotes', 'Get Quote'])\"\n                               class=\"btn btn-warning navbar-btn\">Get a Quote</a>\n                                <a href=\"/members/login?redirect=http%3A%2F%2Fwww.transdirect.com.au%2Fapi%2Flocations%2Fpostcode%2F\"\n                                   onclick=\"_gaq.push(['_trackEvent', 'Quotes', 'Sign In'])\"\n                                   class=\"btn btn-primary navbar-btn\">SIGN IN</a>\n                            </div>\n                        </div>\n                    </div>\n                </div>\n            </div>\n        </div>\n    </div>\n    <div class=\"container\">\n        <div class=\"row\" style=\"min-height: 300px;\">\n            <div class=\"col-lg-12\">\n                <h3>Oops! There has been an error encountered.</h3>\n                <h4>\n                    <span class=\"alert-danger\">Action `postcode` not found.</span>\n                </h4>\n            </div>\n        </div>\n    </div>\n    <div class=\"footer\">\n        <div class=\"container\">\n            <div class=\"row\">\n                <div class=\"col-md-6\">\n                    <div class=\"row\">\n                        <div class=\"col-sm-4 copyright\">&copy; 2008-2019 TransDirect </div>\n                        <div class=\"col-sm-8\">\n                            <ul class=\"list-inline\">\n                                <li>\n                                    <a href=\"mailto:info@transdirect.com.au?subject=Transdirect\">info@transdirect.com.au</a>\n                                    <span class=\"divider\">|</span>\n                                </li>\n                                <li>\n                                    <a href=\"tel:+1300668229\">ph. 1300 668 229</a>\n                                </li>\n                            </ul>\n                        </div>\n                    </div>\n                </div>\n                <div class=\"col-md-6\">\n                    <ul class=\"list-inline\">\n                        <li>\n                            <a href=\"/about-us\">Contact Us</a>\n                            <span class=\"divider\">|</span>\n                        </li>\n                        <li>\n                            <a href=\"/terms-and-conditions\">Terms &amp; Conditions</a>\n                        </li>\n                    </ul>\n                </div>\n            </div>\n        </div>\n    </div>\n    <script type=\"text/javascript\">window.NREUM||(NREUM={});NREUM.info={\"beacon\":\"bam.nr-data.net\",\"licenseKey\":\"c29935b8b3\",\"applicationID\":\"35504947\",\"transactionName\":\"M1ZbYUQDVhVWVEdeVgocbEdfTVEIU1JLGUkMQw==\",\"queueTime\":0,\"applicationTime\":25,\"atts\":\"HxFYFwwZRRs=\",\"errorBeacon\":\"bam.nr-data.net\",\"agent\":\"\"}</script>\n</body>\n</html>"
						},
						{
							"name": "Valid post code starts with special character",
							"originalRequest": {
								"method": "GET",
								"header": [],
								"body": {
									"mode": "raw",
									"raw": ""
								},
								"url": {
									"raw": "https://www.transdirect.com.au/api/locations/postcode/#2760",
									"protocol": "https",
									"host": [
										"www",
										"transdirect",
										"com",
										"au"
									],
									"path": [
										"api",
										"locations",
										"postcode",
										""
									],
									"hash": "2760"
								}
							},
							"status": "Not Found",
							"code": 404,
							"_postman_previewlanguage": "html",
							"header": [
								{
									"key": "Date",
									"value": "Tue, 05 Mar 2019 12:28:19 GMT"
								},
								{
									"key": "Content-Type",
									"value": "text/html; charset=UTF-8"
								},
								{
									"key": "Content-Length",
									"value": "4250"
								},
								{
									"key": "Connection",
									"value": "keep-alive"
								},
								{
									"key": "Content-Encoding",
									"value": "gzip"
								},
								{
									"key": "Vary",
									"value": "Accept-Encoding,User-Agent"
								},
								{
									"key": "Expect-CT",
									"value": "max-age=604800, report-uri=\"https://report-uri.cloudflare.com/cdn-cgi/beacon/expect-ct\""
								},
								{
									"key": "Server",
									"value": "cloudflare"
								},
								{
									"key": "CF-RAY",
									"value": "4b2c16c5785ac338-SIN"
								}
							],
							"cookie": [],
							"body": "    \n<script async src=\"https://www.googletagmanager.com/gtag/js?id=UA-5698511-1\"></script>\n<script>\n      window.dataLayer = window.dataLayer || [];\n      function gtag(){dataLayer.push(arguments);}\n      gtag('js', new Date());\n      gtag('config', 'UA-5698511-1', { 'send_page_view': false });\n\n      gtag('event', 'exception', {\n        'description': 'Action `postcode` not found.',\n        'fatal': true\n      });\n    </script>\n<!doctype html><html><head><script>document.domain = \"transdirect.com.au\";</script><script type=\"text/javascript\" src=\"//use.typekit.net/gev8jim.js\"></script><script type=\"text/javascript\">try{Typekit.load();}catch(e){}</script><meta charset=\"UTF-8\" /><script type=\"text/javascript\">window.NREUM||(NREUM={}),__nr_require=function(e,n,t){function r(t){if(!n[t]){var o=n[t]={exports:{}};e[t][0].call(o.exports,function(n){var o=e[t][1][n];return r(o||n)},o,o.exports)}return n[t].exports}if(\"function\"==typeof __nr_require)return __nr_require;for(var o=0;o<t.length;o++)r(t[o]);return r}({1:[function(e,n,t){function r(){}function o(e,n,t){return function(){return i(e,[c.now()].concat(u(arguments)),n?null:this,t),n?void 0:this}}var i=e(\"handle\"),a=e(3),u=e(4),f=e(\"ee\").get(\"tracer\"),c=e(\"loader\"),s=NREUM;\"undefined\"==typeof window.newrelic&&(newrelic=s);var p=[\"setPageViewName\",\"setCustomAttribute\",\"setErrorHandler\",\"finished\",\"addToTrace\",\"inlineHit\",\"addRelease\"],d=\"api-\",l=d+\"ixn-\";a(p,function(e,n){s[n]=o(d+n,!0,\"api\")}),s.addPageAction=o(d+\"addPageAction\",!0),s.setCurrentRouteName=o(d+\"routeName\",!0),n.exports=newrelic,s.interaction=function(){return(new r).get()};var m=r.prototype={createTracer:function(e,n){var t={},r=this,o=\"function\"==typeof n;return i(l+\"tracer\",[c.now(),e,t],r),function(){if(f.emit((o?\"\":\"no-\")+\"fn-start\",[c.now(),r,o],t),o)try{return n.apply(this,arguments)}catch(e){throw f.emit(\"fn-err\",[arguments,this,e],t),e}finally{f.emit(\"fn-end\",[c.now()],t)}}}};a(\"actionText,setName,setAttribute,save,ignore,onEnd,getContext,end,get\".split(\",\"),function(e,n){m[n]=o(l+n)}),newrelic.noticeError=function(e,n){\"string\"==typeof e&&(e=new Error(e)),i(\"err\",[e,c.now(),!1,n])}},{}],2:[function(e,n,t){function r(e,n){if(!o)return!1;if(e!==o)return!1;if(!n)return!0;if(!i)return!1;for(var t=i.split(\".\"),r=n.split(\".\"),a=0;a<r.length;a++)if(r[a]!==t[a])return!1;return!0}var o=null,i=null,a=/Version\\/(\\S+)\\s+Safari/;if(navigator.userAgent){var u=navigator.userAgent,f=u.match(a);f&&u.indexOf(\"Chrome\")===-1&&u.indexOf(\"Chromium\")===-1&&(o=\"Safari\",i=f[1])}n.exports={agent:o,version:i,match:r}},{}],3:[function(e,n,t){function r(e,n){var t=[],r=\"\",i=0;for(r in e)o.call(e,r)&&(t[i]=n(r,e[r]),i+=1);return t}var o=Object.prototype.hasOwnProperty;n.exports=r},{}],4:[function(e,n,t){function r(e,n,t){n||(n=0),\"undefined\"==typeof t&&(t=e?e.length:0);for(var r=-1,o=t-n||0,i=Array(o<0?0:o);++r<o;)i[r]=e[n+r];return i}n.exports=r},{}],5:[function(e,n,t){n.exports={exists:\"undefined\"!=typeof window.performance&&window.performance.timing&&\"undefined\"!=typeof window.performance.timing.navigationStart}},{}],ee:[function(e,n,t){function r(){}function o(e){function n(e){return e&&e instanceof r?e:e?f(e,u,i):i()}function t(t,r,o,i){if(!d.aborted||i){e&&e(t,r,o);for(var a=n(o),u=v(t),f=u.length,c=0;c<f;c++)u[c].apply(a,r);var p=s[y[t]];return p&&p.push([b,t,r,a]),a}}function l(e,n){h[e]=v(e).concat(n)}function m(e,n){var t=h[e];if(t)for(var r=0;r<t.length;r++)t[r]===n&&t.splice(r,1)}function v(e){return h[e]||[]}function g(e){return p[e]=p[e]||o(t)}function w(e,n){c(e,function(e,t){n=n||\"feature\",y[t]=n,n in s||(s[n]=[])})}var h={},y={},b={on:l,addEventListener:l,removeEventListener:m,emit:t,get:g,listeners:v,context:n,buffer:w,abort:a,aborted:!1};return b}function i(){return new r}function a(){(s.api||s.feature)&&(d.aborted=!0,s=d.backlog={})}var u=\"nr@context\",f=e(\"gos\"),c=e(3),s={},p={},d=n.exports=o();d.backlog=s},{}],gos:[function(e,n,t){function r(e,n,t){if(o.call(e,n))return e[n];var r=t();if(Object.defineProperty&&Object.keys)try{return Object.defineProperty(e,n,{value:r,writable:!0,enumerable:!1}),r}catch(i){}return e[n]=r,r}var o=Object.prototype.hasOwnProperty;n.exports=r},{}],handle:[function(e,n,t){function r(e,n,t,r){o.buffer([e],r),o.emit(e,n,t)}var o=e(\"ee\").get(\"handle\");n.exports=r,r.ee=o},{}],id:[function(e,n,t){function r(e){var n=typeof e;return!e||\"object\"!==n&&\"function\"!==n?-1:e===window?0:a(e,i,function(){return o++})}var o=1,i=\"nr@id\",a=e(\"gos\");n.exports=r},{}],loader:[function(e,n,t){function r(){if(!E++){var e=x.info=NREUM.info,n=l.getElementsByTagName(\"script\")[0];if(setTimeout(s.abort,3e4),!(e&&e.licenseKey&&e.applicationID&&n))return s.abort();c(y,function(n,t){e[n]||(e[n]=t)}),f(\"mark\",[\"onload\",a()+x.offset],null,\"api\");var t=l.createElement(\"script\");t.src=\"https://\"+e.agent,n.parentNode.insertBefore(t,n)}}function o(){\"complete\"===l.readyState&&i()}function i(){f(\"mark\",[\"domContent\",a()+x.offset],null,\"api\")}function a(){return O.exists&&performance.now?Math.round(performance.now()):(u=Math.max((new Date).getTime(),u))-x.offset}var u=(new Date).getTime(),f=e(\"handle\"),c=e(3),s=e(\"ee\"),p=e(2),d=window,l=d.document,m=\"addEventListener\",v=\"attachEvent\",g=d.XMLHttpRequest,w=g&&g.prototype;NREUM.o={ST:setTimeout,SI:d.setImmediate,CT:clearTimeout,XHR:g,REQ:d.Request,EV:d.Event,PR:d.Promise,MO:d.MutationObserver};var h=\"\"+location,y={beacon:\"bam.nr-data.net\",errorBeacon:\"bam.nr-data.net\",agent:\"js-agent.newrelic.com/nr-1118.min.js\"},b=g&&w&&w[m]&&!/CriOS/.test(navigator.userAgent),x=n.exports={offset:u,now:a,origin:h,features:{},xhrWrappable:b,userAgent:p};e(1),l[m]?(l[m](\"DOMContentLoaded\",i,!1),d[m](\"load\",r,!1)):(l[v](\"onreadystatechange\",o),d[v](\"onload\",r)),f(\"mark\",[\"firstbyte\",u],null,\"api\");var E=0,O=e(5)},{}]},{},[\"loader\"]);</script><title>Couriers, Freight & Shipping Services in Australia | </title><meta name=\"viewport\" content=\"width=device-width, initial-scale=1.0\"><script type=\"text/javascript\" src=\"/js/quotes/scripts.js\"></script><link rel=\"stylesheet\" type=\"text/css\" href=\"/css/styles.frontend.min.css\" />\n<!--[if lte IE 8]>\n<link rel=\"stylesheet\" type=\"text/css\" href=\"/css/ie8.css\" />\n<![endif]-->\n<!--[if IE 9]>\n<link rel=\"stylesheet\" type=\"text/css\" href=\"/css/ie9.css\" />\n<![endif]-->\n<!--[if lt IE 9]>\n<script src=\"//html5shiv.googlecode.com/svn/trunk/html5.js\"></script>\n<script>window.html5 || document.write('\n    <script src=\"/api/js/libs/html5.js\"><\\/script>')\n    </script>\n    <![endif]-->\n    <link href=\"/favicon.ico\" title=\"Icon\" type=\"image/x-icon\" rel=\"icon\" />\n    <link href=\"/favicon.ico\" title=\"Icon\" type=\"image/x-icon\" rel=\"shortcut icon\" />\n</head>\n<body class=\"page\">\n    <!-- Google Tag Manager -->\n    <noscript>\n        <iframe src=\"//www.googletagmanager.com/ns.html?id=GTM-WJD4P2\" height=\"0\" width=\"0\" style=\"display:none;visibility:hidden\"></iframe>\n    </noscript>\n    <script>(function(w,d,s,l,i){w[l]=w[l]||[];w[l].push({'gtm.start':\n        new Date().getTime(),event:'gtm.js'});var f=d.getElementsByTagName(s)[0],\n        j=d.createElement(s),dl=l!='dataLayer'?'&l='+l:'';j.async=true;j.src=\n        '//www.googletagmanager.com/gtm.js?id='+i+dl;f.parentNode.insertBefore(j,f);\n    })(window,document,'script','dataLayer','GTM-WJD4P2');\n</script>\n    <!-- End Google Tag Manager -->\n    <!-- Google Analytics -->\n    <script async src=\"https://www.googletagmanager.com/gtag/js?id=UA-5698511-1\"></script>\n    <script>\n    window.dataLayer = window.dataLayer || [];\n    function gtag(){dataLayer.push(arguments);}\n    gtag('js', new Date());\n\n    gtag('config', 'UA-5698511-1');\n    gtag('event', 'Error', {'event_category' : 'Quote', 'event_label': '1'});\n</script>\n    <!-- End Google Analytics -->\n    <div class=\"navbar-wrapper\">\n        <div class=\"navbar navbar-default\" role=\"navigation\">\n            <div class=\"container\">\n                <div class=\"row\">\n                    <div class=\"navbar-header col-lg-3\">\n                        <button type=\"button\" class=\"navbar-toggle\" data-toggle=\"collapse\" data-target=\".navbar-collapse\">\n                            <span class=\"icon-bar\"></span>\n                            <span class=\"icon-bar\"></span>\n                            <span class=\"icon-bar\"></span>\n                        </button>\n                        <a href=\"/\" onclick=\"_gaq.push(['_trackEvent', 'Quotes', 'Home'])\">\n                            <img class=\"navbar-brand\" src=\"/images/logo-transdirect.png\" alt=\"transdirect_logo\">\n                    \n                        </a>\n                    </div>\n                    <div class=\"navbar-collapse collapse col-md-12 col-lg-9 navbar-right\">\n                        <div class=\"row\">\n                            <div class=\"clearfix visible-md\"></div>\n                            <div class=\"nav navbar-nav navbar-right\">\n                                <a href=\"/\"\n                               onclick=\"_gaq.push(['_trackEvent', 'Quotes', 'Home'])\"\n                               class=\"btn btn-default navbar-btn\">Home</a>\n                                <a href=\"/api/bookings\"\n                               onclick=\"_gaq.push(['_trackEvent', 'Quotes', 'Get Quote'])\"\n                               class=\"btn btn-warning navbar-btn\">Get a Quote</a>\n                                <a href=\"/members/login?redirect=http%3A%2F%2Fwww.transdirect.com.au%2Fapi%2Flocations%2Fpostcode%2F\"\n                                   onclick=\"_gaq.push(['_trackEvent', 'Quotes', 'Sign In'])\"\n                                   class=\"btn btn-primary navbar-btn\">SIGN IN</a>\n                            </div>\n                        </div>\n                    </div>\n                </div>\n            </div>\n        </div>\n    </div>\n    <div class=\"container\">\n        <div class=\"row\" style=\"min-height: 300px;\">\n            <div class=\"col-lg-12\">\n                <h3>Oops! There has been an error encountered.</h3>\n                <h4>\n                    <span class=\"alert-danger\">Action `postcode` not found.</span>\n                </h4>\n            </div>\n        </div>\n    </div>\n    <div class=\"footer\">\n        <div class=\"container\">\n            <div class=\"row\">\n                <div class=\"col-md-6\">\n                    <div class=\"row\">\n                        <div class=\"col-sm-4 copyright\">&copy; 2008-2019 TransDirect </div>\n                        <div class=\"col-sm-8\">\n                            <ul class=\"list-inline\">\n                                <li>\n                                    <a href=\"mailto:info@transdirect.com.au?subject=Transdirect\">info@transdirect.com.au</a>\n                                    <span class=\"divider\">|</span>\n                                </li>\n                                <li>\n                                    <a href=\"tel:+1300668229\">ph. 1300 668 229</a>\n                                </li>\n                            </ul>\n                        </div>\n                    </div>\n                </div>\n                <div class=\"col-md-6\">\n                    <ul class=\"list-inline\">\n                        <li>\n                            <a href=\"/about-us\">Contact Us</a>\n                            <span class=\"divider\">|</span>\n                        </li>\n                        <li>\n                            <a href=\"/terms-and-conditions\">Terms &amp; Conditions</a>\n                        </li>\n                    </ul>\n                </div>\n            </div>\n        </div>\n    </div>\n    <script type=\"text/javascript\">window.NREUM||(NREUM={});NREUM.info={\"beacon\":\"bam.nr-data.net\",\"licenseKey\":\"c29935b8b3\",\"applicationID\":\"35504947\",\"transactionName\":\"M1ZbYUQDVhVWVEdeVgocbEdfTVEIU1JLGUkMQw==\",\"queueTime\":0,\"applicationTime\":25,\"atts\":\"HxFYFwwZRRs=\",\"errorBeacon\":\"bam.nr-data.net\",\"agent\":\"\"}</script>\n</body>\n</html>"
						}
					]
				},
				{
					"name": "Valid post code ends with special character",
					"event": [
						{
							"listen": "test",
							"script": {
								"id": "bc90bffc-9e68-45d3-a9be-1f774b57f3c8",
								"exec": [
									"pm.test(\"Status code is 200\", function () {",
									"    pm.response.to.have.status(200);",
									"});",
									"pm.test(\"Body matches string\", function () {",
									"    pm.expect(pm.response.text()).to.include(\"locations\");",
									"});"
								],
								"type": "text/javascript"
							}
						}
					],
					"request": {
						"method": "GET",
						"header": [],
						"body": {
							"mode": "raw",
							"raw": ""
						},
						"url": {
							"raw": "https://www.transdirect.com.au/api/locations/postcode/2760!",
							"protocol": "https",
							"host": [
								"www",
								"transdirect",
								"com",
								"au"
							],
							"path": [
								"api",
								"locations",
								"postcode",
								"2760!"
							]
						}
					},
					"response": []
				},
				{
					"name": "Valid post code starts with zero",
					"event": [
						{
							"listen": "test",
							"script": {
								"id": "d1cc4796-e884-48ba-af2c-f582cc880129",
								"exec": [
									"pm.test(\"Status code is 200\", function () {",
									"    pm.response.to.have.status(200);",
									"});",
									"pm.test(\"Body matches string\", function () {",
									"    pm.expect(pm.response.text()).to.include(\"locations\");",
									"});"
								],
								"type": "text/javascript"
							}
						}
					],
					"request": {
						"method": "GET",
						"header": [],
						"body": {
							"mode": "raw",
							"raw": ""
						},
						"url": {
							"raw": "https://www.transdirect.com.au/api/locations/postcode/02760",
							"protocol": "https",
							"host": [
								"www",
								"transdirect",
								"com",
								"au"
							],
							"path": [
								"api",
								"locations",
								"postcode",
								"02760"
							]
						}
					},
					"response": []
				},
				{
					"name": "Valid post code ends with zero",
					"event": [
						{
							"listen": "test",
							"script": {
								"id": "24008af7-212d-420b-ae1d-d44309418753",
								"exec": [
									"pm.test(\"Status code is 400\", function () {",
									"    pm.response.to.have.status(400);",
									"pm.test(\"Body matches string\", function () {",
									"    pm.expect(pm.response.text()).to.include(\"400 Bad Request\");",
									"});",
									"});"
								],
								"type": "text/javascript"
							}
						}
					],
					"request": {
						"method": "GET",
						"header": [],
						"body": {
							"mode": "raw",
							"raw": ""
						},
						"url": {
							"raw": "https://www.transdirect.com.au/api/locations/postcode/2760%",
							"protocol": "https",
							"host": [
								"www",
								"transdirect",
								"com",
								"au"
							],
							"path": [
								"api",
								"locations",
								"postcode",
								"2760%"
							]
						}
					},
					"response": []
				},
				{
					"name": "Valid post code more than once",
					"event": [
						{
							"listen": "test",
							"script": {
								"id": "6027e3b9-4b83-4cb1-a103-a7cee32fb08f",
								"exec": [
									"pm.test(\"Status code is 200\", function () {",
									"    pm.response.to.have.status(200);",
									"});",
									"pm.test(\"Body matches string\", function () {",
									"    pm.expect(pm.response.text()).to.include(\"locations\");",
									"});"
								],
								"type": "text/javascript"
							}
						}
					],
					"request": {
						"method": "GET",
						"header": [],
						"body": {
							"mode": "raw",
							"raw": ""
						},
						"url": {
							"raw": "https://www.transdirect.com.au/api/locations/postcode/2760 2760",
							"protocol": "https",
							"host": [
								"www",
								"transdirect",
								"com",
								"au"
							],
							"path": [
								"api",
								"locations",
								"postcode",
								"2760 2760"
							]
						}
					},
					"response": []
				}
			]
		}
	]
}